<?xml version="1.0" encoding="UTF-8" standalone="no"?>
<!-- Created with Inkscape (http://www.inkscape.org/) -->

<svg
   width="256"
   height="256"
   viewBox="0 0 67.733332 67.733333"
   version="1.1"
   id="svg3129"
   inkscape:version="1.2.1 (9c6d41e410, 2022-07-14)"
   sodipodi:docname="logo.svg"
   inkscape:export-filename="../assets/icon114.png"
   inkscape:export-xdpi="42.749996"
   inkscape:export-ydpi="42.749996"
   xmlns:inkscape="http://www.inkscape.org/namespaces/inkscape"
   xmlns:sodipodi="http://sodipodi.sourceforge.net/DTD/sodipodi-0.dtd"
   xmlns="http://www.w3.org/2000/svg"
   xmlns:svg="http://www.w3.org/2000/svg">
  <sodipodi:namedview
     id="namedview3131"
     pagecolor="#ffffff"
     bordercolor="#000000"
     borderopacity="0.25"
     inkscape:showpageshadow="2"
     inkscape:pageopacity="0.0"
     inkscape:pagecheckerboard="0"
     inkscape:deskcolor="#d1d1d1"
     inkscape:document-units="mm"
     showgrid="true"
     inkscape:zoom="1.5939807"
     inkscape:cx="144.29284"
     inkscape:cy="118.57107"
     inkscape:window-width="1920"
     inkscape:window-height="1011"
     inkscape:window-x="0"
     inkscape:window-y="0"
     inkscape:window-maximized="1"
     inkscape:current-layer="layer3">
    <inkscape:grid
       type="xygrid"
       id="grid4339"
       empspacing="32" />
  </sodipodi:namedview>
  <defs
     id="defs3126" />
  <g
     inkscape:label="Layer 1"
     inkscape:groupmode="layer"
     id="layer1">
    <rect
       style="fill:#a1d6e7;fill-opacity:1;stroke:none;stroke-width:17.1964"
       id="rect15994"
       width="67.73333"
       height="67.73333"
       x="0"
       y="-8.8817842e-16" />
    <g
       id="g2326"
       transform="matrix(-0.25050343,-0.08516085,-0.08516085,0.25050343,181.28851,-39.704689)">
      <g
         id="use2324">
        <path
           fill="#8d5d93"
           stroke="none"
           d="m 365,438.3 q -0.05,-0.15 -0.1,-0.3 -0.55,-1.05 -1.6,-1.4 -7.4,-3.1 -14.2,-1.1 -0.2,0 -0.35,0.1 -0.6,0.3 -1.05,0.9 -0.2,0.25 -0.3,0.6 -0.2,0.6 -0.2,1.15 0,0.15 0.05,0.3 l 0.4,2.65 q -0.5,0.15 -0.95,0.35 l -1.95,-1.7 q -3.6,-3.05 -7.2,0 l -4.95,4.25 q -2,1.7 -1.85,3.5 -0.15,1.8 1.85,3.5 h 0.05 l 4.9,4.25 q 3.6,3 7.2,0 v -0.05 l 1.75,-1.45 q 0.75,0.25 1.6,0.5 0,0.1 -0.05,0.15 -0.25,0.65 -0.25,1.2 0,0.2 0.05,0.4 0.1,0.55 0.3,0.95 0.1,0.15 0.2,0.3 l 2,2.8 q 0.55,0.75 1.4,0.95 1.25,0.5 2.15,-0.2 3.25,-1.45 5.95,-4.6 2,0.15 4.2,0.2 h 0.05 q 0.2,0 0.4,0 3.65,0 6.2,-2.6 v 0.05 q 2.55,-2.6 2.55,-6.25 0,-3.65 -2.55,-6.2 -2.35,-2.3 -5.55,-2.5 -0.05,-0.4 -0.15,-0.7 m -0.5,2.65 q 2.8,0 4.75,1.95 2,2 2,4.8 0,2.8 -2,4.8 -1.95,2 -4.75,2 -0.2,0 -0.4,0 -2.69023,-0.059 -5.15,-0.3 -2.71172,3.49785 -6.1,4.95 -0.2,0.15 -0.5,0 -0.25,0 -0.4,-0.2 l -2,-2.8 q -0.1,-0.2 -0.15,-0.45 0,-0.2 0.1,-0.45 0.1,-0.25 0.3,-0.3 1.24434,-0.7375 2.35,-1.6 -0.3543,-0.0764 -0.7,-0.15 -1.5,-0.3 -2.95,-0.7 -1.59629,-0.46953 -2.85,-1 l -2.6,2.3 q -2.3,1.95 -4.6,0 l -4.95,-4.25 q -2.35,-1.95 0,-3.95 l 4.95,-4.25 q 2.3,-1.95 4.6,0 l 2.8,2.45 q 1.17969,-0.46758 2.65,-0.9 0.46621,-0.13105 0.95,-0.25 l -0.65,-4.4 q 0,-0.25 0.1,-0.55 0.15,-0.2 0.35,-0.3 6.25,-1.8 13,1.1 0.3,0.1 0.45,0.4 0.1,0.3 0.05,0.6 l -0.4,1.5 q 0.66973,0.008 1.35,0 0.2,-0.05 0.4,-0.05 z"
           id="path29189" />
        <path
           fill="#c985d0"
           stroke="none"
           d="m 349.8,455.7 q 0.05,0.25 0.15,0.45 l 2,2.8 q 0.15,0.2 0.4,0.2 0.3,0.15 0.5,0 3.38828,-1.45215 6.1,-4.95 -3.41797,-0.26719 -6.4,-0.85 -1.10566,0.8625 -2.35,1.6 -0.2,0.05 -0.3,0.3 -0.1,0.25 -0.1,0.45 m -0.5,-18 q -0.1,0.3 -0.1,0.55 l 0.65,4.4 q 5.5832,-1.42734 12.9,-1.65 l 0.4,-1.5 q 0.05,-0.3 -0.05,-0.6 -0.15,-0.3 -0.45,-0.4 -6.75,-2.9 -13,-1.1 -0.2,0.1 -0.35,0.3 m -5.85,3.65 q -2.3,-1.95 -4.6,0 l -4.95,4.25 q -2.35,2 0,3.95 l 4.95,4.25 q 2.3,1.95 4.6,0 l 2.6,-2.3 q -3.95,-1.65723 -3.95,-3.8 0,-2.19453 4.15,-3.9 z"
           id="path29191" />
        <path
           fill="#e599ee"
           stroke="none"
           d="m 348.9,442.9 q -1.47031,0.43242 -2.65,0.9 -4.15,1.70547 -4.15,3.9 0,2.14277 3.95,3.8 1.25371,0.53047 2.85,1 1.45,0.4 2.95,0.7 0.3457,0.0736 0.7,0.15 2.98203,0.58281 6.4,0.85 2.45977,0.24102 5.15,0.3 l -6.75,-6.75 6.75,-6.75 q -0.68027,0.008 -1.35,0 -7.3168,0.22266 -12.9,1.65 -0.48379,0.11895 -0.95,0.25 z"
           id="path29193" />
        <path
           fill="#d890e0"
           stroke="none"
           d="m 369.25,442.9 q -1.95,-1.95 -4.75,-1.95 -0.2,0 -0.4,0.05 l -6.75,6.75 6.75,6.75 q 0.2,0 0.4,0 2.8,0 4.75,-2 2,-2 2,-4.8 0,-2.8 -2,-4.8 m -0.75,5.5 q -0.55,0.65 -1.4,0.65 -0.8,0 -1.4,-0.65 -0.6,-0.55 -0.6,-1.4 0,-0.8 0.6,-1.4 0.6,-0.6 1.4,-0.6 0.85,0 1.4,0.6 0.65,0.6 0.65,1.4 0,0.85 -0.65,1.4 z"
           id="path29195" />
        <path
           fill="#af75b6"
           stroke="none"
           d="m 367.1,449.05 q 0.85,0 1.4,-0.65 0.65,-0.55 0.65,-1.4 0,-0.8 -0.65,-1.4 -0.55,-0.6 -1.4,-0.6 -0.8,0 -1.4,0.6 -0.6,0.6 -0.6,1.4 0,0.85 0.6,1.4 0.6,0.65 1.4,0.65 z"
           id="path29197" />
      </g>
    </g>
    <g
       id="g2722"
       transform="matrix(0.22844859,-0.13347502,0.13347502,0.22844859,-345.02794,99.26789)">
      <g
         id="use2720">
        <path
           fill="#788383"
           stroke="none"
           d="m 1297.55,531.05 q -0.1637,-10e-4 -0.35,0 -13.3242,2.25898 -14.2,12.75 -0.01,0.14023 0,0.25 0.068,1.75156 0.55,3.3 0.022,0.0719 0.05,0.15 2.308,6.26406 13.4,7.9 0.1492,0.0484 0.3,0.05 h 3.55 q 0.1457,-0.002 0.3,-0.05 5.0789,-0.72598 6.45,-3.45 h 7.75 q 0.6746,0.9 1.75,1.65 h 0.05 q 0.427,0.45547 1.65,0.45 0.5891,0.0391 1.4,-0.3 v -0.05 q 1.5828,-0.6709 2.9,-1.5 0.062,-0.002 0.1,-0.05 0.1723,-0.0914 0.3,-0.2 h 3.2 q 5.6803,0.006 9.6,-2.1 0.026,-0.0117 0.05,-0.05 5.0918,-2.54688 4.85,-6.25 0.2338,-3.75703 -4.85,-6.35 -0.025,0.0127 -0.05,0 -3.9197,-2.10586 -9.6,-2.1 h -0.45 q -0.3047,-0.28828 -0.65,-0.55 -3.6209,-3.49961 -8.7,-3.5 h -19.35 m 26.8,5.05 q 0.55,0.45 1,1 h 1.35 q 5.15,0 8.7,1.9 3.8,1.9 3.8,4.55 0,2.6 -3.8,4.5 -3.55,1.9 -8.7,1.9 h -3.55 -0.2 q -0.4,0.25 -0.85,0.55 -1.25,0.75 -2.7,1.4 -0.35,0.15 -0.6,0.15 -0.4,0 -0.55,-0.1 -1.1,-0.75 -1.6,-1.7 -0.05,-0.15 -0.1,-0.3 h -10.4 q -0.55,2.8 -5.3,3.5 h -3.55 q -9.7,-1.45 -11.85,-6.7 -0.4,-1.3 -0.45,-2.75 0.9,-9 12.55,-10.95 h 19.35 q 4.35,0 7.45,3.05 z"
           id="path39205" />
        <path
           fill="#acc0c1"
           stroke="none"
           d="m 1323.15,549.85 q -0.1,0.05 -0.2,0.1 h 0.2 v -0.1 m -2.45,-12.75 h -20.8 q -4.4,0 -7.4,1.9 -3,1.9 -3,4.55 0,2.6 3,4.5 3,1.9 7.4,1.9 h 6.25 10.4 q -0.3,-0.75 -0.25,-1.6 0,-0.9 0.45,-1.95 0.05,-0.1 0.2,-0.25 0.15,-0.1 0.35,-0.15 2.4,-0.85 4.85,-1.25 -4.05,-5.25 -1.45,-7.65 z"
           id="path39207" />
        <path
           fill="#98a9aa"
           stroke="none"
           d="m 1325.85,547.55 q 0,-0.05 0.1,-0.1 0.1,-0.15 0.05,-0.25 l -0.7,-2.5 q -0.05,-0.15 -0.2,-0.2 -0.2,-0.05 -0.5,-0.05 -1.25,0.1 -2.45,0.3 -2.45,0.4 -4.85,1.25 -0.2,0.05 -0.35,0.15 -0.15,0.15 -0.2,0.25 -0.45,1.05 -0.45,1.95 -0.05,0.85 0.25,1.6 0.05,0.15 0.1,0.3 0.5,0.95 1.6,1.7 0.15,0.1 0.55,0.1 0.25,0 0.6,-0.15 1.45,-0.65 2.7,-1.4 0.45,-0.3 0.85,-0.55 0.1,-0.05 0.2,-0.1 1.45,-1.1 2.7,-2.3 m 7.75,-3.95 q 0.15,-0.65 -0.4,-1.35 -0.4,-0.7 -1.2,-0.9 -0.7,-0.1 -1.4,0.4 -0.65,0.5 -0.75,1.15 -0.15,0.75 0.25,1.45 0.5,0.7 1.2,0.8 0.8,0.15 1.4,-0.35 0.75,-0.45 0.9,-1.2 m -12.9,-6.5 h 4.65 q -0.45,-0.55 -1,-1 -3.1,-3.05 -7.45,-3.05 h -19.35 Q 1285.9,535 1285,544 q 0.05,1.45 0.45,2.75 2.15,5.25 11.85,6.7 h 3.55 q 4.75,-0.7 5.3,-3.5 h -6.25 q -4.4,0 -7.4,-1.9 -3,-1.9 -3,-4.5 0,-2.65 3,-4.55 3,-1.9 7.4,-1.9 z"
           id="path39209" />
        <path
           fill="#b5cacb"
           stroke="none"
           d="m 1325.35,537.1 h -4.65 q -2.6,2.4 1.45,7.65 1.2,-0.2 2.45,-0.3 0.3,0 0.5,0.05 0.15,0.05 0.2,0.2 l 0.7,2.5 q 0.05,0.1 -0.05,0.25 -0.1,0.05 -0.1,0.1 -1.25,1.2 -2.7,2.3 v 0.1 h 3.55 q 5.15,0 8.7,-1.9 3.8,-1.9 3.8,-4.5 0,-2.65 -3.8,-4.55 -3.55,-1.9 -8.7,-1.9 h -1.35 m 7.85,5.15 q 0.55,0.7 0.4,1.35 -0.15,0.75 -0.9,1.2 -0.6,0.5 -1.4,0.35 -0.7,-0.1 -1.2,-0.8 -0.4,-0.7 -0.25,-1.45 0.1,-0.65 0.75,-1.15 0.7,-0.5 1.4,-0.4 0.8,0.2 1.2,0.9 z"
           id="path39211" />
      </g>
    </g>
  </g>
  <g
     inkscape:groupmode="layer"
     id="layer2"
     inkscape:label="Layer 2">
    <g
       id="g2566"
       transform="matrix(0.26458333,0,0,0.26458333,-296.7876,-75.263928)">
      <g
         id="use2564">
        <path
           fill="#bccbcb"
           stroke="none"
           d="m 1209.3,456.6 -1.95,-6.55 q -0.55,0.15 -0.95,0.6 l -16.25,17.9 q -0.45,0.5 -0.5,1.2 -0.05,0.2 0,0.45 l 19.65,-13.6 m 17.9,-0.8 q -0.4,-0.7 -1.2,-0.9 l -3.25,-0.85 -1.1,9.25 7.25,-4.8 -1.7,-2.7 m 14.6,13.8 q -0.45,-0.45 -1,-0.6 l -6.4,-1.65 -2.5,0.4 -0.7,4.85 10,1.7 1,-2.55 q 0.25,-0.5 0.15,-1.1 -0.15,-0.55 -0.55,-1.05 z"
           id="path21031" />
        <path
           fill="#c5d4d4"
           stroke="none"
           d="m 1221.65,463.3 1.1,-9.25 -14.2,-4 q -0.65,-0.15 -1.2,0 l 1.95,6.55 12.35,6.7 m 10.25,4.45 -8.35,1.5 1.6,2.3 6.05,1.05 z"
           id="path21033" />
        <path
           fill="#acc0c1"
           stroke="none"
           d="m 1231.9,467.75 2.5,-0.4 -5.5,-8.85 -7.25,4.8 -12.35,-6.7 -19.65,13.6 q 0,0.4 0.25,0.8 l 5.2,9 h 43.85 l 2.25,-5.7 -10,-1.7 -6.05,-1.05 -1.6,-2.3 8.35,-1.5 m -12.7,-3.1 1.75,2.95 -3,1.7 -1.7,-2.95 2.95,-1.7 m -0.85,7.8 -1.85,1.1 -1.05,-1.9 1.85,-1.1 1.05,1.9 m -21.65,-0.65 1.75,2.95 -3,1.7 -1.75,-2.95 z"
           id="path21035" />
        <path
           fill="#a0b3b4"
           stroke="none"
           d="m 1198.45,474.75 -1.75,-2.95 -3,1.7 1.75,2.95 3,-1.7 m 18.05,-1.2 1.85,-1.1 -1.05,-1.9 -1.85,1.1 1.05,1.9 m 4.45,-5.95 -1.75,-2.95 -2.95,1.7 1.7,2.95 z"
           id="path21037" />
        <path
           fill="#929f9f"
           stroke="none"
           d="m 1240.8,469 q 0.55,0.15 1,0.6 0.4,0.5 0.55,1.05 0.1,0.6 -0.15,1.1 l -1,2.55 -2.25,5.7 h 2.15 l 2.95,-7.5 -0.05,0.15 q 0.55,-1.05 0.35,-2.3 -0.05,-0.1 -0.05,-0.2 -0.25,-0.95 -0.95,-1.8 -0.05,-0.1 -0.1,-0.15 -0.9,-0.85 -1.9,-1.1 h -0.05 l -5.6,-1.45 -6.75,-10.85 -0.05,-0.05 q -0.8,-1.4 -2.4,-1.8 l 0.05,0.05 -17.45,-4.85 q -0.05,-0.05 -0.1,-0.05 -1.2,-0.25 -2.15,0.05 -1.1,0.25 -1.9,1.15 l -16.25,17.9 q -0.85,0.95 -1,2.2 -0.1,0.4 -0.05,0.9 0,0.85 0.55,1.7 v 0.05 l 4.6,7.95 h 2.3 l -5.2,-9 q -0.25,-0.4 -0.25,-0.8 -0.05,-0.25 0,-0.45 0.05,-0.7 0.5,-1.2 l 16.25,-17.9 q 0.4,-0.45 0.95,-0.6 0.55,-0.15 1.2,0 l 14.2,4 3.25,0.85 q 0.8,0.2 1.2,0.9 l 1.7,2.7 5.5,8.85 z"
           id="path21039" />
      </g>
    </g>
    <g
       id="g2474"
       transform="matrix(0.26458333,0,0,0.26458333,-312.96824,3.6837702)">
      <g
         id="use2472">
        <path
           fill="#27ae60"
           stroke="none"
           d="m 1421,152.3 q -1.55,0.55 -2.25,2.1 -5.2,11.8 0.2,22.5 3.65,7.1 2.35,15.1 h 5.3 q -0.65,-6.05 -3.4,-12.4 -4.95,-11.35 -0.95,-23.05 0.25,-0.75 1.65,-4.25 -1.5,-0.55 -2.9,0 M 1409,135 q -0.8,0 -1.6,0.4 -1.5,0.8 -2.1,2.65 -0.55,1.8 0.1,3.6 0.45,1.15 0.8,2.3 4,12.55 -0.95,24.7 -4.9,12 -3.05,23.35 h 5.8 q -0.1,-0.35 -0.25,-0.7 -0.45,-1.2 -0.8,-2.45 -3.65,-13.15 1.75,-24.6 5.7,-12 0.3,-29.25 m -13.4,11.05 q -0.45,-1.15 -1.4,-1.85 -2.75,6.75 -2.8,6.9 -4,10.7 0.95,21 4.9,10.25 3.05,19.9 h 3.3 q 1.85,-9.65 -3.05,-19.9 -4.95,-10.3 -0.95,-21 0.35,-1.05 0.8,-2 0.65,-1.55 0.1,-3.05 z"
           id="path17690" />
        <path
           fill="#2cc66d"
           stroke="none"
           d="m 1424.05,152.35 q -0.1,-0.05 -0.15,-0.05 -1.4,3.5 -1.65,4.25 -4,11.7 0.95,23.05 2.75,6.35 3.4,12.4 h 3 q -0.65,-5.55 -3.4,-11.35 -4.95,-10.35 -0.95,-21.05 0.35,-1 0.8,-1.95 0.65,-1.55 0.1,-3.05 -0.6,-1.55 -2.1,-2.25 m -13.6,-17 q -0.7,-0.35 -1.45,-0.35 5.4,17.25 -0.3,29.25 -5.4,11.45 -1.75,24.6 0.35,1.25 0.8,2.45 0.15,0.35 0.25,0.7 h 4.9 q -0.1,-0.35 -0.25,-0.7 -0.5,-1.2 -0.9,-2.45 -4.2,-13.15 0.75,-24.6 5.45,-12.55 0.2,-26.45 -0.7,-1.8 -2.25,-2.45 m -16.25,8.85 q -0.35,-0.25 -0.7,-0.4 -1.55,-0.65 -3.05,-0.05 -1.55,0.55 -2.25,2.1 -5.25,11.8 0.2,22.5 4.95,9.75 0.75,21 -0.4,1.05 -0.9,2.05 -0.15,0.3 -0.25,0.6 h 7.4 q 1.85,-9.65 -3.05,-19.9 -4.95,-10.3 -0.95,-21 0.05,-0.15 2.8,-6.9 z"
           id="path17692" />
        <path
           fill="#1b7e44"
           stroke="none"
           d="m 1394.2,144.2 q 0.95,0.7 1.4,1.85 0.55,1.5 -0.1,3.05 -0.45,0.95 -0.8,2 -4,10.7 0.95,21 4.9,10.25 3.05,19.9 h 3.5 q -1.85,-11.35 3.05,-23.35 4.95,-12.15 0.95,-24.7 -0.35,-1.15 -0.8,-2.3 -0.65,-1.8 -0.1,-3.6 0.6,-1.85 2.1,-2.65 0.8,-0.4 1.6,-0.4 0.75,0 1.45,0.35 1.55,0.65 2.25,2.45 5.25,13.9 -0.2,26.45 -4.95,11.45 -0.75,24.6 0.4,1.25 0.9,2.45 0.15,0.35 0.25,0.7 h 2 q 0,-0.25 -0.05,-0.55 -0.15,-0.5 -0.35,-0.95 v 0.05 q -0.45,-1.15 -0.85,-2.3 -3.9,-12.2 0.55,-22.9 -0.1,6.4 3,12.45 v 0.05 q 3.3,6.5 2.15,13.85 -0.05,0.15 -0.05,0.3 h 2 q 1.3,-8 -2.35,-15.1 -5.4,-10.7 -0.2,-22.5 0.7,-1.55 2.25,-2.1 1.4,-0.55 2.9,0 0.05,0 0.15,0.05 1.5,0.7 2.1,2.25 0.55,1.5 -0.1,3.05 -0.45,0.95 -0.8,1.95 -4,10.7 0.95,21.05 2.75,5.8 3.4,11.35 h 2 q 0,-0.1 0,-0.2 -0.7,-5.9 -3.6,-12 -4.6,-9.6 -0.85,-19.5 v -0.05 q 0.3,-0.9 0.7,-1.75 0,-0.05 0.05,-0.05 0.95,-2.3 0.15,-4.55 -0.9,-2.3 -3.15,-3.35 h 0.05 q -0.45,-0.2 -0.75,-0.25 -2,-0.6 -3.85,0.15 -2.05,0.7 -3.1,2.55 0.4,-7.75 -2.65,-15.9 -1.05,-2.6 -3.25,-3.55 -1.15,-0.55 -2.35,-0.55 -1.25,0 -2.5,0.6 l -0.05,0.05 q -2.2,1.1 -3.05,3.8 v 0.05 q -0.75,2.4 0.15,4.85 v 0.05 q 0.4,1.05 0.75,2.15 3.8,11.85 -0.9,23.35 -2.25,5.55 -3.15,11 -0.95,-3.8 -2.8,-7.65 -4.6,-9.55 -0.85,-19.45 v -0.05 q 0.3,-0.95 0.7,-1.8 0,-0.05 0.05,-0.05 0.95,-2.3 0.15,-4.55 -0.7,-1.7 -2.1,-2.75 -0.55,-0.4 -1.1,-0.65 -2.3,-0.95 -4.5,-0.05 -0.05,0 -0.1,0 -2.3,0.85 -3.3,3.15 -5.65,12.7 0.25,24.2 4.5,9 0.65,19.4 -0.4,0.95 -0.85,1.85 -0.2,0.45 -0.35,0.9 -0.1,0.3 -0.1,0.6 h 2 q 0.1,-0.3 0.25,-0.6 0.5,-1 0.9,-2.05 4.2,-11.25 -0.75,-21 -5.45,-10.7 -0.2,-22.5 0.7,-1.55 2.25,-2.1 1.5,-0.6 3.05,0.05 0.35,0.15 0.7,0.4 z"
           id="path17694" />
      </g>
    </g>
  </g>
  <g
     inkscape:groupmode="layer"
     id="layer3"
     inkscape:label="Layer 3">
    <g
       id="g2322"
       transform="matrix(-0.22697342,-0.13596839,-0.13596839,0.22697342,146.07115,-50.873039)">
      <g
         id="use2320"
         transform="rotate(15.760689,162.88385,447.82978)">
        <path
           fill="#1b7e44"
           stroke="none"
           d="m 179.45,431.3 q 0,-1.5 -0.9,-2.35 -0.1,-0.05 -0.1,-0.1 -0.95,-0.85 -2.35,-0.85 -13.5,0.05 -23.9,7.75 h -0.05 q -1,0.75 -1.25,1.95 -0.25,0.95 0.1,1.95 0.05,0.1 0.1,0.2 l 0.75,1.6 q -0.95,0.55 -1.75,1.2 l -1.9,-1.85 v -0.05 q -4.4,-4.25 -8.75,0.05 l -6.35,6.2 v -0.05 q -2.2,2.15 -2.1,4.35 -0.1,2.2 2.1,4.35 l 6.35,6.2 q 4.35,4.25 8.75,0 l 1.9,-1.9 q 1.6,1.2 3.85,2.3 1.25,0.65 2.65,1.2 -0.1,0.85 0.4,1.7 0.4,1 1.35,1.5 h 0.05 q 7.65,4.1 18.15,3.15 h 0.05 q 1.05,-0.1 1.85,-0.8 0.05,-0.1 0.15,-0.1 0.65,-0.7 0.9,-1.75 0,-0.1 0.05,-0.15 l 0.3,-1.95 q 2.55,-1.1 4.65,-3.15 4.5,-4.4 4.5,-10.6 0,-6.25 -4.5,-10.6 -2.3,-2.25 -5.05,-3.3 v -6.1 M 176.1,430 q 0.6,0 1,0.35 0.35,0.35 0.35,0.95 v 7.5 q 3.15,0.9 5.65,3.3 3.9,3.8 3.9,9.2 0,5.35 -3.9,9.15 -2.25,2.25 -5.05,3.15 l -0.5,3.1 q -0.1,0.45 -0.4,0.75 -0.35,0.3 -0.8,0.35 -9.85,0.9 -17.05,-2.95 -0.4,-0.2 -0.55,-0.65 -0.25,-0.35 -0.15,-0.75 l 0.3,-1.3 q -2.15,-0.75 -4.1,-1.7 -3,-1.45 -4.8,-3.15 l -3.2,3.1 q -3,2.9 -5.95,0 l -6.35,-6.2 q -3,-2.9 0,-5.8 l 6.35,-6.2 q 2.95,-2.9 5.95,0 l 3.15,3.1 q 1.75,-1.6 4.5,-3 L 152.9,439 q -0.15,-0.45 -0.05,-0.9 0.1,-0.45 0.5,-0.75 9.9,-7.3 22.75,-7.35 z"
           id="path37593" />
        <path
           fill="#2cc66d"
           stroke="none"
           d="m 149.95,445.3 -3.15,-3.1 q -3,-2.9 -5.95,0 l -6.35,6.2 q -3,2.9 0,5.8 l 6.35,6.2 q 2.95,2.9 5.95,0 l 3.2,-3.1 q -2.9,-2.75 -2.9,-6 0,-3.3 2.85,-6 m 23.95,18.95 q -0.2,0 -0.4,0 -2.2,0 -4.2,-0.1 -5.7,-0.45 -10.4,-2 l -0.3,1.3 q -0.1,0.4 0.15,0.75 0.15,0.45 0.55,0.65 7.2,3.85 17.05,2.95 0.45,-0.05 0.8,-0.35 0.3,-0.3 0.4,-0.75 l 0.5,-3.1 q -1.95,0.65 -4.15,0.65 m -3.6,-11.05 q -2.8,-0.15 -5.55,-0.55 -4.4,-0.65 -8.75,-1.95 -0.4,-0.1 -0.75,0 -0.4,0.1 -0.65,0.4 -0.25,0.25 -0.3,0.65 l -0.35,2.7 q -0.05,0.4 0.1,0.7 0.15,0.4 0.55,0.55 5.55,2.9 11.9,4.1 1,0.15 2.05,0.3 0.5,0.05 0.9,-0.2 0.4,-0.2 0.55,-0.65 l 1.45,-4.4 q 0.1,-0.4 0.05,-0.75 -0.2,-0.4 -0.5,-0.65 -0.35,-0.25 -0.7,-0.25 m 6.8,-22.85 q -0.4,-0.35 -1,-0.35 -12.85,0.05 -22.75,7.35 -0.4,0.3 -0.5,0.75 -0.1,0.45 0.05,0.9 l 1.55,3.3 q 0.15,-0.1 0.35,-0.2 5.85,-2.85 13.5,-3.55 2.5,-0.25 5.2,-0.25 0.2,0 0.4,0 1.85,0.05 3.55,0.5 v -7.5 q 0,-0.6 -0.35,-0.95 z"
           id="path37595" />
        <path
           fill="#27ae60"
           stroke="none"
           d="m 164.75,452.65 q -0.1,-0.95 -0.1,-1.95 0,-2.25 0.4,-4.3 0.75,-4.4 3.25,-7.85 -7.65,0.7 -13.5,3.55 -0.2,0.1 -0.35,0.2 -2.75,1.4 -4.5,3 -2.85,2.7 -2.85,6 0,3.25 2.9,6 1.8,1.7 4.8,3.15 1.95,0.95 4.1,1.7 4.7,1.55 10.4,2 -0.3,-0.4 -0.6,-0.75 -1.3,-1.7 -2.2,-3.6 -6.35,-1.2 -11.9,-4.1 -0.4,-0.15 -0.55,-0.55 -0.15,-0.3 -0.1,-0.7 l 0.35,-2.7 q 0.05,-0.4 0.3,-0.65 0.25,-0.3 0.65,-0.4 0.35,-0.1 0.75,0 4.35,1.3 8.75,1.95 z"
           id="path37597" />
        <path
           fill="#25a65b"
           stroke="none"
           d="m 173.9,438.3 q -0.2,0 -0.4,0 -2.7,0 -5.2,0.25 -2.5,3.45 -3.25,7.85 -0.4,2.05 -0.4,4.3 0,1 0.1,1.95 2.75,0.4 5.55,0.55 0.35,0 0.7,0.25 0.3,0.25 0.5,0.65 0.05,0.35 -0.05,0.75 l -1.45,4.4 q -0.15,0.45 -0.55,0.65 -0.4,0.25 -0.9,0.2 -1.05,-0.15 -2.05,-0.3 0.9,1.9 2.2,3.6 0.3,0.35 0.6,0.75 2,0.1 4.2,0.1 0.2,0 0.4,0 2.2,0 4.15,-0.65 2.8,-0.9 5.05,-3.15 3.9,-3.8 3.9,-9.15 0,-5.4 -3.9,-9.2 -2.5,-2.4 -5.65,-3.3 -1.7,-0.45 -3.55,-0.5 m 2.85,9.15 q 0.8,-0.8 1.9,-0.8 1.1,0 1.9,0.8 0.8,0.8 0.8,1.85 0,1.1 -0.8,1.85 -0.8,0.8 -1.9,0.8 -1.1,0 -1.9,-0.8 -0.8,-0.75 -0.8,-1.85 0,-1.05 0.8,-1.85 z"
           id="path37599" />
        <path
           fill="#1d8548"
           stroke="none"
           d="m 178.65,446.65 q -1.1,0 -1.9,0.8 -0.8,0.8 -0.8,1.85 0,1.1 0.8,1.85 0.8,0.8 1.9,0.8 1.1,0 1.9,-0.8 0.8,-0.75 0.8,-1.85 0,-1.05 -0.8,-1.85 -0.8,-0.8 -1.9,-0.8 z"
           id="path37601" />
      </g>
    </g>
    <g
       id="g2354"
       transform="matrix(0.25108731,0.08342363,-0.08342363,0.25108731,-113.47668,-161.72614)">
      <g
         id="use2352">
        <path
           fill="#872a21"
           stroke="none"
           d="m 755.65,425.15 q -0.9625,-0.90273 -2.4,-0.9 h -0.05 q -14.87402,0.10762 -26.4,8.5 3.9e-4,0.0529 -0.05,0.05 -1.07441,0.87324 -1.25,2.05 -0.23457,0.96445 0.15,2.05 0.0602,0.1123 0.1,0.2 l 0.95,2 q -0.91309,0.57207 -1.7,1.15 l -2.6,-2.2 V 438 q -2.47168,-2.16289 -5.1,-2.1 -2.0793,-0.18809 -4.15,2.4 0.0133,0.0285 0,0.05 l -5.3,7 v -0.05 q -3.44648,4.36797 0,8.85 v 0 l 5.3,6.95 q 0.0381,0.0475 0.05,0.05 2.05508,2.45508 4.1,2.3 2.61387,0.0449 5.05,-2.05 h 0.05 l 2.2,-1.85 q 1.36816,0.97949 3.05,1.9 l -0.45,2.3 q -0.49629,1.13887 0.25,2.4 0.43672,1.13574 1.55,1.7 l -0.05,-0.05 q 9.03164,4.90449 21.45,3.7 1.12656,-0.10957 2,-0.9 0.95254,-0.77324 1.15,-2.15 v 0 l 0.15,-0.8 q 0.72324,0.0508 1.45,0.05 0.45,0 0.95,0 h 0.05 q 0.1,0 0.25,0 0.083,0.004 0.15,0 3.96621,-0.12598 6.75,-5.7 2.54492,-4.91719 2.55,-11.95 0.005,-7.08145 -2.5,-12.05 l -0.05,-0.05 q -2.63789,-5.12637 -6.3,-5.55 -0.1252,0.0145 -0.25,0 v -4.7 q 0.005,-1.54082 -1,-2.5 -0.025,-0.0105 -0.1,-0.05 m -1.3,1.5 q 0.4,0.4 0.4,1.05 v 6.7 q 0.2,0 0.4,0 0.45,-0.05 0.95,-0.05 h 0.05 q 0.1,0 0.25,0 v 0.05 q 2.95,0.25 5.15,4.5 2.3,4.6 2.3,11.15 0,6.5 -2.3,11.05 -2.2,4.35 -5.15,4.6 -0.15,0 -0.25,0 h -0.05 q -0.5,0 -0.95,0 -1,0 -2,-0.05 -0.57539,-0.024 -1.15,-0.05 l -0.4,2.55 q -0.1,0.6 -0.5,0.95 -0.4,0.35 -0.9,0.4 -11.75,1.15 -20.3,-3.45 -0.5,-0.25 -0.65,-0.8 -0.3,-0.45 -0.15,-0.85 l 0.8,-4.05 q -3.2543,-1.5918 -5.3,-3.4 l -3.5,2.95 q -1.85,1.55 -3.8,1.55 -1.25,0 -2.55,-1.55 l -5.3,-6.95 q -2.5,-3.25 0,-6.4 l 5.3,-7 q 1.3,-1.65 2.55,-1.65 1.95,0 3.8,1.65 l 3.8,3.25 q 1.80391,-1.48047 4.4,-2.85 l -1.75,-3.7 q -0.2,-0.55 -0.05,-1 0.05,-0.5 0.5,-0.85 11,-8.05 25.25,-8.15 0.65,0 1.1,0.4 z"
           id="path26596" />
        <path
           fill="#bf3d31"
           stroke="none"
           d="m 717.3,437.9 q -1.25,0 -2.55,1.65 l -5.3,7 q -2.5,3.15 0,6.4 l 5.3,6.95 q 1.3,1.55 2.55,1.55 1.95,0 3.8,-1.55 l 3.5,-2.95 q -3.55,-3.12461 -3.55,-6.9 0,-3.97637 3.85,-7.25 l -3.8,-3.25 q -1.85,-1.65 -3.8,-1.65 m 34.7,27.7 q -0.64922,-0.024 -1.3,-0.05 -10.85,-0.85 -19.15,-4.45 -0.85449,-0.37031 -1.65,-0.75 l -0.8,4.05 q -0.15,0.4 0.15,0.85 0.15,0.55 0.65,0.8 8.55,4.6 20.3,3.45 0.5,-0.05 0.9,-0.4 0.4,-0.35 0.5,-0.95 l 0.4,-2.55 m 7.4,-17.35 q 0.65,-0.55 0.65,-1.35 0,-0.75 -0.65,-1.35 -0.5,-0.6 -1.35,-0.6 -0.75,0 -1.35,0.6 -0.55,0.6 -0.55,1.35 0,0.8 0.55,1.35 0.6,0.65 1.35,0.65 0.85,0 1.35,-0.65 m -14.1,2.5 q -0.35,-0.3 -0.75,-0.25 -7.9,-0.4 -15.7,-2.75 -0.45,-0.05 -0.8,0 -0.4,0.15 -0.7,0.45 -0.25,0.3 -0.4,0.7 l -0.35,2.9 q -0.05,0.5 0.1,0.85 0.25,0.4 0.65,0.6 7.1,3.65 15.3,4.85 0.6,0.05 1.05,-0.25 0.4,-0.2 0.5,-0.75 l 1.65,-4.8 q 0.1,-0.4 0.05,-0.8 -0.25,-0.45 -0.6,-0.75 m -16,-10.8 q 1.05098,-0.52461 2.25,-1.05 8.3,-3.55 19.15,-4.3 1.25,-0.1 2.45,-0.15 0.8,-0.04 1.6,-0.05 v -6.7 q 0,-0.65 -0.4,-1.05 -0.45,-0.4 -1.1,-0.4 -14.25,0.1 -25.25,8.15 -0.45,0.35 -0.5,0.85 -0.15,0.45 0.05,1 z"
           id="path26598" />
        <path
           fill="#f5503f"
           stroke="none"
           d="m 753.15,434.45 q -1.2,0.05 -2.45,0.15 -0.83223,4.00937 -1.25,7.95 -0.89082,8.62129 0.2,16.95 0.39238,3.05059 1.05,6.05 0.65078,0.026 1.3,0.05 0.57461,0.026 1.15,0.05 1,0.05 2,0.05 0.45,0 0.95,0 h 0.05 q 0.1,0 0.25,0 2.95,-0.25 5.15,-4.6 2.3,-4.55 2.3,-11.05 0,-6.55 -2.3,-11.15 -2.2,-4.25 -5.15,-4.5 v -0.05 q -0.15,0 -0.25,0 h -0.05 q -0.5,0 -0.95,0.05 -0.2,0 -0.4,0 -0.8,0.01 -1.6,0.05 m 6.9,12.45 q 0,0.8 -0.65,1.35 -0.5,0.65 -1.35,0.65 -0.75,0 -1.35,-0.65 -0.55,-0.55 -0.55,-1.35 0,-0.75 0.55,-1.35 0.6,-0.6 1.35,-0.6 0.85,0 1.35,0.6 0.65,0.6 0.65,1.35 z"
           id="path26600" />
        <path
           fill="#e74c3c"
           stroke="none"
           d="m 731.55,438.9 q -1.19902,0.52539 -2.25,1.05 -2.59609,1.36953 -4.4,2.85 -3.85,3.27363 -3.85,7.25 0,3.77539 3.55,6.9 2.0457,1.8082 5.3,3.4 0.79551,0.37969 1.65,0.75 8.3,3.6 19.15,4.45 -0.65762,-2.99941 -1.05,-6.05 -1.09082,-8.32871 -0.2,-16.95 0.41777,-3.94063 1.25,-7.95 -10.85,0.75 -19.15,4.3 m 13,11.6 q 0.4,-0.05 0.75,0.25 0.35,0.3 0.6,0.75 0.05,0.4 -0.05,0.8 l -1.65,4.8 q -0.1,0.55 -0.5,0.75 -0.45,0.3 -1.05,0.25 -8.2,-1.2 -15.3,-4.85 -0.4,-0.2 -0.65,-0.6 -0.15,-0.35 -0.1,-0.85 l 0.35,-2.9 q 0.15,-0.4 0.4,-0.7 0.3,-0.3 0.7,-0.45 0.35,-0.05 0.8,0 7.8,2.35 15.7,2.75 z"
           id="path26602" />
      </g>
    </g>
    <g
       id="g2714"
       transform="matrix(0.26458333,0,0,0.26458333,-276.24697,-116.11161)">
      <g
         id="use2712">
        <path
           fill="#e2d9ae"
           stroke="none"
           d="m 1104.65,560.65 q 0.2,0 0.4,-0.05 l 2.95,-1.55 q -1.1926,-1.32656 -2.15,-2.75 l -1.7,3.35 q -0.1,0.2 -0.05,0.45 -0.05,0.2 0.1,0.4 0.15,0.1 0.45,0.15 m 19.65,5.6 q -0.9662,0 -1.9,-0.1 l 0.95,2.95 q 0.05,0.2 0.25,0.35 0.15,0.15 0.4,0.15 0.2,0 0.4,-0.15 0.15,-0.15 0.25,-0.35 l 0.9,-2.9 q -0.615,0.05 -1.25,0.05 m 16.4,-7.4 q -0.4307,0.48066 -0.9,0.95 -0.7027,0.7082 -1.45,1.35 l 2.9,1.45 q 0.2,0.1 0.45,0.05 0.2,0.05 0.4,-0.1 0.1,-0.15 0.15,-0.45 0,-0.2 -0.05,-0.4 z"
           id="path25087" />
        <path
           fill="#a16e39"
           stroke="none"
           d="m 1117.95,534.2 q -0.8064,1.88164 -1.15,3.75 -0.7436,4.44668 1.15,8.9 0.15,0.35 0.5,0.55 0.35,0.15 0.75,0 4.65,-1.55 8.4,-5.5 0.071,-0.0846 0.1,-0.2 0.15,-0.2127 0.15,-0.5 v -5.75 q 0,-0.35 -0.15,-0.6 -0.2,-0.25 -0.5,-0.35 -4.25,-1.5 -8.45,-0.9 -0.3,0 -0.5,0.2 -0.2,0.15 -0.3,0.4 m -11.55,-2.7 -1.35,-1.3 q -2.45,-2.35 -4.85,0 l -5.15,5.05 q -2.45,2.35 0,4.7 l 5.15,5.05 q 1.1045,1.08145 2.2,1.15 -0.05,-0.90176 -0.05,-1.85 0,-1.95 0.3,-3.7 0,-0.2 0.05,-0.35 0.841,-4.79043 3.7,-8.75 m 2.45,-7.95 q 0,0.2 0.05,0.4 l 1.65,3.15 q 1.523,-1.19395 3.15,-2.1 l -3.85,-1.95 q -0.2,-0.1 -0.45,-0.05 -0.2,-0.05 -0.4,0.1 -0.1,0.15 -0.15,0.45 m 14.75,-5.1 q -0.25,0.05 -0.4,0.25 -0.15,0.1 -0.25,0.3 l -1.15,3.45 q 1.2332,-0.1 2.5,-0.1 0.5148,0 1,0 l -1.05,-3.35 q -0.1,-0.2 -0.25,-0.35 -0.25,-0.15 -0.4,-0.2 m 13.55,14.9 q -0.7,0 -1.25,0.55 -0.5,0.55 -0.5,1.2 0,0.7 0.5,1.25 0.55,0.55 1.25,0.55 0.75,0 1.2,-0.55 0.6,-0.55 0.6,-1.25 0,-0.65 -0.6,-1.2 -0.45,-0.55 -1.2,-0.55 m 2.4,-9.4 q 0.05,-0.2 0.05,-0.4 -0.05,-0.3 -0.15,-0.45 -0.2,-0.15 -0.4,-0.1 -0.25,-0.05 -0.45,0.05 l -3.8,1.9 q 1.6379,0.90117 3.1,2.1 z"
           id="path25089" />
        <path
           fill="#eee4b7"
           stroke="none"
           d="m 1146.25,544.3 q 0,-1.4 -0.15,-2.7 -9.148,3.68652 -18.4,0.1 -0.03,0.11543 -0.1,0.2 -3.75,3.95 -8.4,5.5 -0.4,0.15 -0.75,0 -0.35,-0.2 -0.5,-0.55 -1.8936,-4.45332 -1.15,-8.9 -2.6973,-0.33926 -5.45,-0.1 -4.2932,0.44043 -8.65,2.4 -0.05,0.15 -0.05,0.35 -0.3,1.75 -0.3,3.7 0,0.94824 0.05,1.85 0.1066,1.11465 0.25,2.15 0.7799,4.35352 3.2,8 0.9574,1.42344 2.15,2.75 0.3754,0.37539 0.75,0.75 5.7652,5.76523 13.65,6.35 0.9338,0.1 1.9,0.1 0.635,0 1.25,-0.05 7.3172,-0.3498 12.8,-5.05 0.7473,-0.6418 1.45,-1.35 0.4693,-0.46934 0.9,-0.95 4.7629,-5.28691 5.45,-12.25 0.1,-1.15 0.1,-2.3 z"
           id="path25091" />
        <path
           fill="#ada585"
           stroke="none"
           d="m 1148.05,541.35 q -0.015,-0.33223 -0.1,-0.7 l -1.85,0.95 q 0.15,1.3 0.15,2.7 0,1.15 -0.1,2.3 -0.6871,6.96309 -5.45,12.25 l 1.5,2.85 q 0.05,0.2 0.05,0.4 -0.05,0.3 -0.15,0.45 -0.2,0.15 -0.4,0.1 -0.25,0.05 -0.45,-0.05 l -2.9,-1.45 q -5.4828,4.7002 -12.8,5.05 l -0.9,2.9 q -0.1,0.2 -0.25,0.35 -0.2,0.15 -0.4,0.15 -0.25,0 -0.4,-0.15 -0.2,-0.15 -0.25,-0.35 l -0.95,-2.95 q -7.8848,-0.58477 -13.65,-6.35 -0.3746,-0.37461 -0.75,-0.75 l -2.95,1.55 q -0.2,0.05 -0.4,0.05 -0.3,-0.05 -0.45,-0.15 -0.15,-0.2 -0.1,-0.4 -0.05,-0.25 0.05,-0.45 l 1.7,-3.35 q -2.4201,-3.64648 -3.2,-8 l -2.1,-0.55 q 0.6479,4.6957 3,8.65 l -1.2,2.35 v 0 q -0.2768,0.53145 -0.3,1.15 -0.1258,0.90918 0.55,1.8 0.2133,0.27793 0.5,0.45 0.3971,0.34082 1.2,0.45 0.1924,0.051 0.35,0.05 0.4375,0.006 0.85,-0.1 0.259,-0.0637 0.45,-0.2 l 1.65,-0.85 q 5.7283,5.54746 13.3,6.5 l 0.5,1.55 q 0.1492,0.7625 0.75,1.3 0.6986,0.75527 1.85,0.75 0.8078,0.0441 1.6,-0.55 0.1156,-0.0809 0.2,-0.2 0.4008,-0.34941 0.65,-0.85 0.062,-0.15039 0.1,-0.3 l 0.5,-1.6 q 6.4576,-0.66738 11.55,-4.6 l 1.75,0.9 q 0.5309,0.27656 1.15,0.25 0.9088,0.17598 1.8,-0.5 0.2779,-0.21328 0.45,-0.5 0.3408,-0.39727 0.45,-1.25 0.051,-0.14258 0.05,-0.3 0.01,-0.4375 -0.1,-0.9 -0.061,-0.20684 -0.2,-0.45 l -0.85,-1.65 q 4.3617,-5.3873 5.05,-12.3 v -0.05 q 0.1039,-1.2127 0.1,-2.45 -0.01,-1.5168 -0.2,-2.95 z"
           id="path25093" />
        <path
           fill="#c48647"
           stroke="none"
           d="m 1137.9,527.05 q -1.4621,-1.19883 -3.1,-2.1 -2.1451,-1.19824 -4.55,-1.85 -2.3768,-0.62539 -4.95,-0.75 -0.4852,0 -1,0 -1.2668,0 -2.5,0.1 -4.3791,0.47383 -8.1,2.55 -1.627,0.90605 -3.15,2.1 -0.9186,0.77539 -1.8,1.65 -1.3162,1.32969 -2.35,2.75 -2.859,3.95957 -3.7,8.75 4.3568,-1.95957 8.65,-2.4 2.7527,-0.23926 5.45,0.1 0.3436,-1.86836 1.15,-3.75 0.1,-0.25 0.3,-0.4 0.2,-0.2 0.5,-0.2 4.2,-0.6 8.45,0.9 0.3,0.1 0.5,0.35 0.15,0.25 0.15,0.6 v 5.75 q 0,0.2873 -0.15,0.5 9.252,3.58652 18.4,-0.1 -0.85,-7.4 -6.3,-12.85 -0.9117,-0.91172 -1.9,-1.7 m -2,6.85 q 0.55,-0.55 1.25,-0.55 0.75,0 1.2,0.55 0.6,0.55 0.6,1.2 0,0.7 -0.6,1.25 -0.45,0.55 -1.2,0.55 -0.7,0 -1.25,-0.55 -0.5,-0.55 -0.5,-1.25 0,-0.65 0.5,-1.2 z"
           id="path25095" />
        <path
           fill="#775129"
           stroke="none"
           d="m 1141.3,524.85 q 0.1381,-0.19219 0.2,-0.45 0.1057,-0.4125 0.1,-0.85 0,-0.15762 -0.05,-0.35 -0.1092,-0.80293 -0.45,-1.2 -0.1721,-0.28672 -0.45,-0.5 -0.8908,-0.67578 -1.8,-0.55 -0.6186,0.0232 -1.15,0.3 v 0 l -2.85,1.45 q -1.9525,-0.95234 -4.1,-1.55 v 0 q -1.9186,-0.48438 -3.95,-0.7 l -0.65,-2.05 q -0.04,-0.15195 -0.1,-0.3 -0.2492,-0.50059 -0.65,-0.9 -0.1609,-0.14902 -0.4,-0.3 -0.4707,-0.26758 -0.8,-0.35 -0.4807,-0.16172 -1,-0.05 -0.7662,0.15332 -1.3,0.65 -0.4428,0.35 -0.75,0.95 -0.058,0.13301 -0.1,0.25 l -0.75,2.3 q -3.5166,0.55117 -6.65,2.1 l -2.9,-1.5 v 0 q -0.5314,-0.27676 -1.15,-0.3 -0.9092,-0.12578 -1.8,0.55 -0.2779,0.21328 -0.5,0.5 -0.291,0.39707 -0.45,1.2 0,0.19238 0,0.35 -0.01,0.4375 0.1,0.85 0.061,0.25605 0.15,0.45 l 0.95,1.8 q -0.3506,0.325 -0.7,0.65 l -0.05,0.05 q -0.5598,0.58809 -1.1,1.2 -3.7338,-3.38828 -7.4,0.2 l -5.15,5.05 q -1.9281,1.88535 -1.85,3.8 -0.078,1.91484 1.85,3.75 l 5.15,5.05 q 0.877,0.88828 1.75,1.3 v 0.05 l 2.1,0.55 q -0.1434,-1.03535 -0.25,-2.15 -1.0955,-0.0685 -2.2,-1.15 l -5.15,-5.05 q -2.45,-2.35 0,-4.7 l 5.15,-5.05 q 2.4,-2.35 4.85,0 l 1.35,1.3 q 1.0338,-1.42031 2.35,-2.75 0.8814,-0.87461 1.8,-1.65 l -1.65,-3.15 q -0.05,-0.2 -0.05,-0.4 0.05,-0.3 0.15,-0.45 0.2,-0.15 0.4,-0.1 0.25,-0.05 0.45,0.05 l 3.85,1.95 q 3.7209,-2.07617 8.1,-2.55 l 1.15,-3.45 q 0.1,-0.2 0.25,-0.3 0.15,-0.2 0.4,-0.25 0.15,0.05 0.4,0.2 0.15,0.15 0.25,0.35 l 1.05,3.35 q 2.5732,0.12461 4.95,0.75 2.4049,0.65176 4.55,1.85 l 3.8,-1.9 q 0.2,-0.1 0.45,-0.05 0.2,-0.05 0.4,0.1 0.1,0.15 0.15,0.45 0,0.2 -0.05,0.4 l -1.65,3.1 q 0.9883,0.78828 1.9,1.7 5.45,5.45 6.3,12.85 l 1.85,-0.95 q -1.0471,-7.62949 -6.75,-13.35 -0.3648,-0.3627 -0.8,-0.75 z"
           id="path25097" />
      </g>
    </g>
    <g
       id="g2266"
       transform="matrix(0.26458333,0,0,0.26458333,-110.06666,-33.866664)">
      <g
         id="use2264">
        <path
           fill="#c48647"
           stroke="none"
           d="m 613.85,332.4 q -2.9,-0.85 -5.85,-1.9 v 12.65 q 1.5,-2 2.75,-4.15 1.8,-3.1 3.1,-6.6 M 662.2,384 h 9.8 v -22.75 q -4.5,6.5 -7.25,15.25 -0.7,2.9 -1.7,5.5 -0.4,1 -0.85,2 m 0.85,-50.7 3.9,3.7 -3.75,3.95 -3.95,-3.75 3.7,-3.9 q -5.05,1.3 -10.1,2.05 -1.35,0.2 -2.7,0.35 -7.2,5.7 -17.55,8.85 l 0.05,0.05 Q 616.9,348.5 608,361.25 V 384 h 10.25 q 0.45,-1 0.95,-2 9.05,-17.95 28.4,-22.75 l -0.05,-0.05 q 16.1,-5 24.45,-16.05 V 330.5 q -4.5,1.6 -8.95,2.8 m -4.65,18.6 -5.15,-2 1.95,-5.1 5.1,1.95 -1.9,5.15 m -11.9,2.5 -3.45,-4.2 4.2,-3.45 3.5,4.2 -4.25,3.45 m -28.25,8.35 -4.4,-3.2 3.2,-4.35 4.35,3.15 -3.15,4.4 m 2.95,2.6 1.55,4.65 -4.6,1.55 -1.55,-4.6 z"
           id="path14474" />
        <path
           fill="#bb7f43"
           stroke="none"
           d="m 632.65,344.6 -0.05,-0.05 q 10.35,-3.15 17.55,-8.85 -17.85,2 -35.65,-3.1 -0.3,-0.1 -0.65,-0.2 -1.3,3.5 -3.1,6.6 -1.25,2.15 -2.75,4.15 v 18.1 q 8.9,-12.75 24.65,-16.65 m 32.1,31.9 q 2.75,-8.75 7.25,-15.25 v -18.1 q -8.35,11.05 -24.45,16.05 l 0.05,0.05 q -19.35,4.8 -28.4,22.75 -0.5,1 -0.95,2 h 43.95 q 0.45,-1 0.85,-2 1,-2.6 1.7,-5.5 m 2.2,-39.5 -3.9,-3.7 q -0.05,0 -0.1,0 l -3.7,3.9 3.95,3.75 3.75,-3.95 m -44.2,33 -1.55,-4.65 -4.6,1.6 1.55,4.6 4.6,-1.55 m -8.9,-10.45 4.4,3.2 3.15,-4.4 -4.35,-3.15 -3.2,4.35 m 29.2,-9.35 3.45,4.2 4.25,-3.45 -3.5,-4.2 -4.2,3.45 m 10.2,-0.3 5.15,2 1.9,-5.15 -5.1,-1.95 z"
           id="path14476" />
        <path
           fill="#a16d39"
           stroke="none"
           d="m 672,326 v -2 q -32,8 -64,0 v 2 q 32,8 64,0 z"
           id="path14478" />
        <path
           fill="#d7914b"
           stroke="none"
           d="m 652.85,335.35 q 5.05,-0.75 10.1,-2.05 0.05,0 0.1,0 4.45,-1.2 8.95,-2.8 V 326 q -32,8 -64,0 v 4.5 q 2.95,1.05 5.85,1.9 0.35,0.1 0.65,0.2 17.8,5.1 35.65,3.1 1.35,-0.15 2.7,-0.35 z"
           id="path14480" />
      </g>
    </g>
    <g
       id="g2262"
       transform="matrix(0.26458333,0,0,0.26458333,-169.33333,-33.866667)">
      <g
         id="use2260">
        <path
           fill="#c48647"
           stroke="none"
           d="m 760.75,376.5 q -0.7,2.9 -1.7,5.5 -0.4,1 -0.85,2 h 9.8 v -22.75 q -4.5,6.5 -7.25,15.25 m -32.15,-31.95 0.05,0.05 Q 712.9,348.5 704,361.25 V 384 h 10.25 q 0.45,-1 0.95,-2 9.05,-17.95 28.4,-22.75 l -0.05,-0.05 q 16.1,-5 24.45,-16.05 V 330.5 q -6.2,-2.25 -12.35,-3.6 -0.55,-0.1 -1.1,-0.25 -8.45,12.5 -25.95,17.9 m -20.2,31.75 -1.55,-4.6 4.6,-1.6 1.55,4.65 -4.6,1.55 m 43.15,-27.05 -1.9,5.15 -5.15,-2 1.95,-5.1 5.1,1.95 m -14.15,3.2 -3.45,-4.2 4.2,-3.45 3.5,4.2 -4.25,3.45 M 704,330.5 v 12.65 q 1.5,-2 2.75,-4.15 2.85,-4.85 4.45,-10.75 -3.6,0.95 -7.2,2.25 z"
           id="path12971" />
        <path
           fill="#bb7f43"
           stroke="none"
           d="m 715.2,382 q -0.5,1 -0.95,2 h 43.95 q 0.45,-1 0.85,-2 1,-2.6 1.7,-5.5 2.75,-8.75 7.25,-15.25 v -18.1 q -8.35,11.05 -24.45,16.05 l 0.05,0.05 q -19.35,4.8 -28.4,22.75 m 18.75,-33.75 3.45,4.2 4.25,-3.45 -3.5,-4.2 -4.2,3.45 m 15.7,6.15 1.9,-5.15 -5.1,-1.95 -1.95,5.1 5.15,2 m -42.8,17.3 1.55,4.6 4.6,-1.55 -1.55,-4.65 -4.6,1.6 m -0.1,-32.7 q -1.25,2.15 -2.75,4.15 v 18.1 q 8.9,-12.75 24.65,-16.65 l -0.05,-0.05 q 17.5,-5.4 25.95,-17.9 -8.3,-1.7 -16.55,-1.9 h -4 q -0.25,0 -0.45,0 -0.2,0 -0.35,0 -0.15,0 -0.35,0.05 -0.2,0 -0.35,0 -0.2,0 -0.35,0.05 -0.2,0 -0.4,0 -4.75,0.25 -9.5,1 -2.6,0.35 -5.1,0.9 l -4.75,1.15 q -0.3,0.05 -0.5,0.15 -0.35,0.1 -0.7,0.2 -1.6,5.9 -4.45,10.75 z"
           id="path12973" />
        <path
           fill="#a16d39"
           stroke="none"
           d="m 704,324 v 2 q 15,-3.75 30,-4 h 4 q 15,0.25 30,4 v -2 q -8,-2 -15.95,-3 Q 745,320.1 738,320 h -4 q -7,0.1 -14,1 -8,1 -16,3 z"
           id="path12975" />
        <path
           fill="#d7914b"
           stroke="none"
           d="m 704,326 v 4.5 q 3.6,-1.3 7.2,-2.25 0.35,-0.1 0.7,-0.2 0.2,-0.1 0.5,-0.15 l 4.75,-1.15 q 2.5,-0.55 5.1,-0.9 4.75,-0.75 9.5,-1 0.2,0 0.4,0 0.15,-0.05 0.35,-0.05 0.15,0 0.35,0 0.2,-0.05 0.35,-0.05 0.15,0 0.35,0 0.2,0 0.45,0 h 4 q 8.25,0.2 16.55,1.9 0.55,0.15 1.1,0.25 6.15,1.35 12.35,3.6 V 326 q -15,-3.75 -30,-4 h -4 q -15,0.25 -30,4 z"
           id="path12977" />
      </g>
    </g>
    <g
       id="g2282-3-6"
       transform="matrix(0.26458333,0,0,0.26458333,-50.8,-33.866667)">
      <g
         id="use2280-6-2">
        <path
           fill="#c48647"
           stroke="none"
           d="m 320,343.15 q 1.5,-2 2.75,-4.15 1.45,-2.5 2.6,-5.3 -2.65,-1.3 -5.35,-3.2 v 12.65 M 384,384 v -22.75 q -4.5,6.5 -7.25,15.25 -0.7,2.9 -1.7,5.5 -0.4,1 -0.85,2 h 9.8 m -11.35,-58.75 q -0.1,-0.05 -0.2,-0.05 -0.3,-0.05 -0.55,-0.1 -0.15,-0.05 -0.35,-0.05 -8.35,13.75 -26.95,19.5 l 0.05,0.05 Q 328.9,348.5 320,361.25 V 384 h 10.25 q 0.45,-1 0.95,-2 9.05,-17.95 28.4,-22.75 l -0.05,-0.05 q 16.1,-5 24.45,-16.05 V 330.5 q -5.65,-4.1 -11.35,-5.25 m -45.2,44.85 1.55,4.65 -4.6,1.55 -1.55,-4.6 4.6,-1.6 m 33.05,-17.7 1.95,-5.1 5.1,1.95 -1.9,5.15 -5.15,-2 m -7.1,0.05 -3.45,-4.2 4.2,-3.45 3.5,4.2 z"
           id="path8369-7-9" />
        <path
           fill="#bb7f43"
           stroke="none"
           d="m 331.2,382 q -0.5,1 -0.95,2 h 43.95 q 0.45,-1 0.85,-2 1,-2.6 1.7,-5.5 2.75,-8.75 7.25,-15.25 v -18.1 q -8.35,11.05 -24.45,16.05 l 0.05,0.05 q -19.35,4.8 -28.4,22.75 m 5.8,-60 h -2 q -7.5,0.25 -15,4 16,8 32,0 -7.5,-3.75 -15,-4 m 34.55,3.05 q -1.25,-0.25 -2.55,-0.3 h -2 q -7.5,0.35 -15,5.75 -13,9.35 -26,3.5 -0.3,-0.15 -0.65,-0.3 -1.15,2.8 -2.6,5.3 -1.25,2.15 -2.75,4.15 v 18.1 q 8.9,-12.75 24.65,-16.65 l -0.05,-0.05 q 18.6,-5.75 26.95,-19.5 m -21.6,23.2 3.45,4.2 4.25,-3.45 -3.5,-4.2 -4.2,3.45 m 12.5,-0.95 -1.95,5.1 5.15,2 1.9,-5.15 -5.1,-1.95 m -33.45,27.45 -1.55,-4.65 -4.6,1.6 1.55,4.6 z"
           id="path8371-5-1" />
        <path
           fill="#d7914b"
           stroke="none"
           d="M 384,330.5 V 326 q -7.5,-3.75 -15,-4 h -2 q -7.5,0.25 -15,4 -16,8 -32,0 v 4.5 q 2.7,1.9 5.35,3.2 0.35,0.15 0.65,0.3 13,5.85 26,-3.5 7.5,-5.4 15,-5.75 h 2 q 1.3,0.05 2.55,0.3 0.2,0 0.35,0.05 0.25,0.05 0.55,0.1 0.1,0 0.2,0.05 5.7,1.15 11.35,5.25 z"
           id="path8373-3-2" />
        <path
           fill="#a16d39"
           stroke="none"
           d="m 376.05,321 q -3.55,-0.9 -7.05,-1 h -2 q -3.5,0.1 -7,1 -4,1 -8,3 -4,-2 -7.95,-3 -3.55,-0.9 -7.05,-1 h -2 q -3.5,0.1 -7,1 -4,1 -8,3 v 2 q 7.5,-3.75 15,-4 h 2 q 7.5,0.25 15,4 7.5,-3.75 15,-4 h 2 q 7.5,0.25 15,4 v -2 q -4,-2 -7.95,-3 z"
           id="path8375-5-7" />
      </g>
    </g>
    <g
       id="g2282"
       transform="matrix(0.26458333,0,0,0.26458333,-84.666667,-33.866667)">
      <g
         id="use2280">
        <path
           fill="#c48647"
           stroke="none"
           d="m 320,343.15 q 1.5,-2 2.75,-4.15 1.45,-2.5 2.6,-5.3 -2.65,-1.3 -5.35,-3.2 v 12.65 M 384,384 v -22.75 q -4.5,6.5 -7.25,15.25 -0.7,2.9 -1.7,5.5 -0.4,1 -0.85,2 h 9.8 m -11.35,-58.75 q -0.1,-0.05 -0.2,-0.05 -0.3,-0.05 -0.55,-0.1 -0.15,-0.05 -0.35,-0.05 -8.35,13.75 -26.95,19.5 l 0.05,0.05 Q 328.9,348.5 320,361.25 V 384 h 10.25 q 0.45,-1 0.95,-2 9.05,-17.95 28.4,-22.75 l -0.05,-0.05 q 16.1,-5 24.45,-16.05 V 330.5 q -5.65,-4.1 -11.35,-5.25 m -45.2,44.85 1.55,4.65 -4.6,1.55 -1.55,-4.6 4.6,-1.6 m 33.05,-17.7 1.95,-5.1 5.1,1.95 -1.9,5.15 -5.15,-2 m -7.1,0.05 -3.45,-4.2 4.2,-3.45 3.5,4.2 z"
           id="path8369" />
        <path
           fill="#bb7f43"
           stroke="none"
           d="m 331.2,382 q -0.5,1 -0.95,2 h 43.95 q 0.45,-1 0.85,-2 1,-2.6 1.7,-5.5 2.75,-8.75 7.25,-15.25 v -18.1 q -8.35,11.05 -24.45,16.05 l 0.05,0.05 q -19.35,4.8 -28.4,22.75 m 5.8,-60 h -2 q -7.5,0.25 -15,4 16,8 32,0 -7.5,-3.75 -15,-4 m 34.55,3.05 q -1.25,-0.25 -2.55,-0.3 h -2 q -7.5,0.35 -15,5.75 -13,9.35 -26,3.5 -0.3,-0.15 -0.65,-0.3 -1.15,2.8 -2.6,5.3 -1.25,2.15 -2.75,4.15 v 18.1 q 8.9,-12.75 24.65,-16.65 l -0.05,-0.05 q 18.6,-5.75 26.95,-19.5 m -21.6,23.2 3.45,4.2 4.25,-3.45 -3.5,-4.2 -4.2,3.45 m 12.5,-0.95 -1.95,5.1 5.15,2 1.9,-5.15 -5.1,-1.95 m -33.45,27.45 -1.55,-4.65 -4.6,1.6 1.55,4.6 z"
           id="path8371" />
        <path
           fill="#d7914b"
           stroke="none"
           d="M 384,330.5 V 326 q -7.5,-3.75 -15,-4 h -2 q -7.5,0.25 -15,4 -16,8 -32,0 v 4.5 q 2.7,1.9 5.35,3.2 0.35,0.15 0.65,0.3 13,5.85 26,-3.5 7.5,-5.4 15,-5.75 h 2 q 1.3,0.05 2.55,0.3 0.2,0 0.35,0.05 0.25,0.05 0.55,0.1 0.1,0 0.2,0.05 5.7,1.15 11.35,5.25 z"
           id="path8373" />
        <path
           fill="#a16d39"
           stroke="none"
           d="m 376.05,321 q -3.55,-0.9 -7.05,-1 h -2 q -3.5,0.1 -7,1 -4,1 -8,3 -4,-2 -7.95,-3 -3.55,-0.9 -7.05,-1 h -2 q -3.5,0.1 -7,1 -4,1 -8,3 v 2 q 7.5,-3.75 15,-4 h 2 q 7.5,0.25 15,4 7.5,-3.75 15,-4 h 2 q 7.5,0.25 15,4 v -2 q -4,-2 -7.95,-3 z"
           id="path8375" />
      </g>
    </g>
  </g>
</svg>
